{
  "CustomToken": {
    "dataSource": "db",
    "public": false
  },
  "Admin": {
    "dataSource": "maria",
    "public": true
  },
  "BaseUser": {
    "dataSource": "maria",
    "public": true
  },
  "Server": {
    "dataSource": "maria",
    "public": true
  },
  "Bot": {
    "dataSource": "maria",
    "public": true
  },
  "BotRevision": {
    "dataSource": "maria",
    "public": true
  }
}
